"year","organ","rowTotal"
"99年","土城分局",1299
"99年","中和第二分局",1285
"99年","三峽分局",1189
"99年","三重分局",1696
"99年","中和分局",972
"99年","板橋分局",616
"99年","樹林分局",1239
"99年","永和分局",1381
"99年","汐止分局",523
"99年","淡水分局",1115
"99年","新店分局",1588
"99年","新莊分局",2330
"99年","瑞芳分局",114
"99年","蘆洲分局",1914
"99年","金山分局",94
"99年","海山分局",677
"100年","土城分局",1739
"100年","中和第二分局",1289
"100年","三峽分局",1033
"100年","三重分局",1602
"100年","中和第一分局",1652
"100年","板橋分局",938
"100年","樹林分局",964
"100年","永和分局",1452
"100年","汐止分局",777
"100年","淡水分局",1001
"100年","新店分局",1818
"100年","新莊分局",1588
"100年","瑞芳分局",280
"100年","蘆洲分局",1859
"100年","金山分局",140
"100年","海山分局",770
"101年","土城分局",1938
"101年","中和第二分局",1297
"101年","三峽分局",1074
"101年","三重分局",2079
"101年","中和第一分局",1719
"101年","板橋分局",1250
"101年","樹林分局",874
"101年","永和分局",1986
"101年","汐止分局",961
"101年","淡水分局",907
"101年","新店分局",1961
"101年","新莊分局",2160
"101年","瑞芳分局",250
"101年","蘆洲分局",1965
"101年","金山分局",172
"101年","海山分局",988
"102年","土城分局",1844
"102年","中和第二分局",1562
"102年","三峽分局",926
"102年","三重分局",2189
"102年","中和第一分局",1761
"102年","板橋分局",2666
"102年","樹林分局",989
"102年","永和分局",2306
"102年","汐止分局",931
"102年","淡水分局",1427
"102年","新店分局",2213
"102年","新莊分局",3165
"102年","瑞芳分局",307
"102年","蘆洲分局",2610
"102年","金山分局",158
"102年","海山分局",2232
"103年","土城分局",2062
"103年","中和第二分局",2091
"103年","三峽分局",1333
"103年","三重分局",2693
"103年","中和第一分局",1443
"103年","板橋分局",2521
"103年","樹林分局",1346
"103年","永和分局",2541
"103年","汐止分局",1432
"103年","淡水分局",1586
"103年","新店分局",2406
"103年","新莊分局",4528
"103年","瑞芳分局",403
"103年","蘆洲分局",3375
"103年","金山分局",181
"103年","海山分局",2330
"104年","土城分局",1717
"104年","中和第二分局",2112
"104年","三峽分局",1715
"104年","三重分局",3014
"104年","中和第一分局",1538
"104年","板橋分局",2566
"104年","樹林分局",1142
"104年","永和分局",2554
"104年","汐止分局",1411
"104年","淡水分局",1800
"104年","新店分局",2363
"104年","新莊分局",4683
"104年","瑞芳分局",406
"104年","蘆洲分局",2993
"104年","金山分局",233
"104年","海山分局",2020
